Text Mining
…
## # A tibble: 2 x 2
##   sentiment     n
## * <chr>     <int>
## 1 negative   4781
## 2 positive   2005

(bing_word_counts <- tidy_books %>%
  inner_join(bing) %>%
  count(word, sentiment, sort = TRUE) %>%
  ungroup())

## Joining, by = "word"

## # A tibble: 2,585 x 3
##    word     sentiment     n
##    <chr>    <chr>     <int>
##  1 miss     negative   1855
##  2 well     positive   1523
##  3 good     positive   1380
##  4 great    positive    981
##  5 like     positive    725
##  6 better   positive    639
##  7 enough   positive    613
##  8 happy    positive    534
##  9 love     positive    495
## 10 pleasure positive    462
## #  with 2,575 more rows
…
It helps to define some stop words to avoid the missuse of some vocabulary.

(custom_stop_words <- bind_rows(tibble(word = c("miss"),
                                       lexicon = c("custom")),
                                stop_words))

## # A tibble: 1,150 x 2
##    word        lexicon
##    <chr>       <chr>  
##  1 miss        custom 
##  2 a           SMART  
##  3 a's         SMART  
##  4 able        SMART  
##  5 about       SMART  
##  6 above       SMART  
##  7 according   SMART  
##  8 accordingly SMART  
##  9 across      SMART  
## 10 actually    SMART  
## #  with 1,140 more rows
…
